Relation between Moments across Datasets
…
metabrelab <- metab1 %>% 
  group_by(St.label) %>% 
  mutate(relab = value/sum(value)) %>% 
  ungroup

metabrelab %>% 
  group_by(St.label) %>% 
  summarise(sum(relab))

## # A tibble: 125 x 2
##    St.label `sum(relab)`
##    <chr>           <dbl>
##  1 007                 1
##  2 008                 1
##  3 010                 1
##  4 011                 1
##  5 012                 1
##  6 014                 1
##  7 017                 1
##  8 018                 1
##  9 019                 1
## 10 020                 1
## # ... with 115 more rows
…
